('c:\\users\\jorge.torresaguero\\appdata\\local\\programs\\python\\python37\\lib\\site-packages\\paho_mqtt-1.4.0.dev0-py3.7.egg',
 None,
 {'EGG-INFO', '*.py', '*.cp37-win_amd64.pyd', '*.pyd', '*.pyc', '*.pyw'},
 'DATA',
 [])
